last-path-return_agent_1,total-samples,max-path-return_agent_1,last-path-return_agent_0,episodes,mean-path-return_agent_0,mean-path-return_agent_1,max-path-return_agent_0,episode_reward
-5.0,2,-5.0,-5.0,1,-2.5,-2.5,-5.0,1
50.0,5,50.0,10.0,2,3.3333333333333335,16.666666666666668,10.0,2
50.0,8,50.0,10.0,3,3.3333333333333335,16.666666666666668,10.0,3
10.0,11,50.0,50.0,4,16.666666666666668,3.3333333333333335,50.0,4
-5.0,13,50.0,-5.0,5,-2.5,-2.5,50.0,5
50.0,16,50.0,10.0,6,3.3333333333333335,16.666666666666668,50.0,6
10.0,19,50.0,50.0,7,16.666666666666668,3.3333333333333335,50.0,7
50.0,22,50.0,10.0,8,3.3333333333333335,16.666666666666668,50.0,8
-5.0,25,50.0,-5.0,9,-1.6666666666666667,-1.6666666666666667,50.0,9
50.0,28,50.0,10.0,10,3.3333333333333335,16.666666666666668,50.0,10
-10.0,30,50.0,-10.0,11,-5.0,-5.0,50.0,11
10.0,33,50.0,50.0,12,16.666666666666668,3.3333333333333335,50.0,12
-5.0,36,50.0,-5.0,13,-1.6666666666666667,-1.6666666666666667,50.0,13
50.0,39,50.0,10.0,14,3.3333333333333335,16.666666666666668,50.0,14
-10.0,41,50.0,-10.0,15,-5.0,-5.0,50.0,15
10.0,43,50.0,50.0,16,25.0,5.0,50.0,16
50.0,45,50.0,10.0,17,5.0,25.0,50.0,17
10.0,48,50.0,50.0,18,16.666666666666668,3.3333333333333335,50.0,18
-5.0,51,50.0,-5.0,19,-1.6666666666666667,-1.6666666666666667,50.0,19
50.0,54,50.0,10.0,20,3.3333333333333335,16.666666666666668,50.0,20
-10.0,56,50.0,-10.0,21,-5.0,-5.0,50.0,21
10.0,59,50.0,50.0,22,16.666666666666668,3.3333333333333335,50.0,22
-5.0,62,50.0,-5.0,23,-1.6666666666666667,-1.6666666666666667,50.0,23
10.0,65,50.0,50.0,24,16.666666666666668,3.3333333333333335,50.0,24
-5.0,67,50.0,-5.0,25,-2.5,-2.5,50.0,25
10.0,70,50.0,50.0,26,16.666666666666668,3.3333333333333335,50.0,26
50.0,73,50.0,10.0,27,3.3333333333333335,16.666666666666668,50.0,27
10.0,76,50.0,50.0,28,16.666666666666668,3.3333333333333335,50.0,28
10.0,79,50.0,50.0,29,16.666666666666668,3.3333333333333335,50.0,29
50.0,82,50.0,10.0,30,3.3333333333333335,16.666666666666668,50.0,30
10.0,85,50.0,50.0,31,16.666666666666668,3.3333333333333335,50.0,31
-5.0,88,50.0,-5.0,32,-1.6666666666666667,-1.6666666666666667,50.0,32
50.0,91,50.0,10.0,33,3.3333333333333335,16.666666666666668,50.0,33
-5.0,93,50.0,-5.0,34,-2.5,-2.5,50.0,34
50.0,96,50.0,10.0,35,3.3333333333333335,16.666666666666668,50.0,35
10.0,99,50.0,50.0,36,16.666666666666668,3.3333333333333335,50.0,36
50.0,102,50.0,10.0,37,3.3333333333333335,16.666666666666668,50.0,37
50.0,105,50.0,10.0,38,3.3333333333333335,16.666666666666668,50.0,38
10.0,108,50.0,50.0,39,16.666666666666668,3.3333333333333335,50.0,39
10.0,111,50.0,50.0,40,16.666666666666668,3.3333333333333335,50.0,40
-5.0,113,50.0,-5.0,41,-2.5,-2.5,50.0,41
50.0,116,50.0,10.0,42,3.3333333333333335,16.666666666666668,50.0,42
10.0,119,50.0,50.0,43,16.666666666666668,3.3333333333333335,50.0,43
-5.0,122,50.0,-5.0,44,-1.6666666666666667,-1.6666666666666667,50.0,44
10.0,125,50.0,50.0,45,16.666666666666668,3.3333333333333335,50.0,45
10.0,128,50.0,50.0,46,16.666666666666668,3.3333333333333335,50.0,46
10.0,130,50.0,50.0,47,25.0,5.0,50.0,47
50.0,133,50.0,10.0,48,3.3333333333333335,16.666666666666668,50.0,48
10.0,136,50.0,50.0,49,16.666666666666668,3.3333333333333335,50.0,49
-5.0,138,50.0,-5.0,50,-2.5,-2.5,50.0,50
-5.0,140,50.0,-5.0,51,-2.5,-2.5,50.0,51
-5.0,142,50.0,-5.0,52,-2.5,-2.5,50.0,52
50.0,145,50.0,10.0,53,3.3333333333333335,16.666666666666668,50.0,53
-5.0,148,50.0,-5.0,54,-1.6666666666666667,-1.6666666666666667,50.0,54
10.0,151,50.0,50.0,55,16.666666666666668,3.3333333333333335,50.0,55
50.0,154,50.0,10.0,56,3.3333333333333335,16.666666666666668,50.0,56
50.0,157,50.0,10.0,57,3.3333333333333335,16.666666666666668,50.0,57
-5.0,159,50.0,-5.0,58,-2.5,-2.5,50.0,58
10.0,162,50.0,50.0,59,16.666666666666668,3.3333333333333335,50.0,59
50.0,165,50.0,10.0,60,3.3333333333333335,16.666666666666668,50.0,60
10.0,168,50.0,50.0,61,16.666666666666668,3.3333333333333335,50.0,61
50.0,171,50.0,10.0,62,3.3333333333333335,16.666666666666668,50.0,62
10.0,174,50.0,50.0,63,16.666666666666668,3.3333333333333335,50.0,63
50.0,177,50.0,10.0,64,3.3333333333333335,16.666666666666668,50.0,64
-5.0,180,50.0,-5.0,65,-1.6666666666666667,-1.6666666666666667,50.0,65
50.0,182,50.0,10.0,66,5.0,25.0,50.0,66
50.0,185,50.0,10.0,67,3.3333333333333335,16.666666666666668,50.0,67
10.0,187,50.0,50.0,68,25.0,5.0,50.0,68
10.0,190,50.0,50.0,69,16.666666666666668,3.3333333333333335,50.0,69
50.0,192,50.0,10.0,70,5.0,25.0,50.0,70
50.0,195,50.0,10.0,71,3.3333333333333335,16.666666666666668,50.0,71
10.0,198,50.0,50.0,72,16.666666666666668,3.3333333333333335,50.0,72
50.0,201,50.0,10.0,73,3.3333333333333335,16.666666666666668,50.0,73
10.0,204,50.0,50.0,74,16.666666666666668,3.3333333333333335,50.0,74
10.0,207,50.0,50.0,75,16.666666666666668,3.3333333333333335,50.0,75
-5.0,209,50.0,-5.0,76,-2.5,-2.5,50.0,76
10.0,212,50.0,50.0,77,16.666666666666668,3.3333333333333335,50.0,77
10.0,215,50.0,50.0,78,16.666666666666668,3.3333333333333335,50.0,78
10.0,219,50.0,50.0,79,12.5,2.5,50.0,79
50.0,222,50.0,10.0,80,3.3333333333333335,16.666666666666668,50.0,80
50.0,225,50.0,10.0,81,3.3333333333333335,16.666666666666668,50.0,81
10.0,227,50.0,50.0,82,25.0,5.0,50.0,82
10.0,229,50.0,50.0,83,25.0,5.0,50.0,83
10.0,232,50.0,50.0,84,16.666666666666668,3.3333333333333335,50.0,84
50.0,235,50.0,10.0,85,3.3333333333333335,16.666666666666668,50.0,85
50.0,238,50.0,10.0,86,3.3333333333333335,16.666666666666668,50.0,86
50.0,241,50.0,10.0,87,3.3333333333333335,16.666666666666668,50.0,87
50.0,244,50.0,10.0,88,3.3333333333333335,16.666666666666668,50.0,88
10.0,247,50.0,50.0,89,16.666666666666668,3.3333333333333335,50.0,89
-5.0,250,50.0,-5.0,90,-1.6666666666666667,-1.6666666666666667,50.0,90
50.0,253,50.0,10.0,91,3.3333333333333335,16.666666666666668,50.0,91
-5.0,255,50.0,-5.0,92,-2.5,-2.5,50.0,92
10.0,258,50.0,50.0,93,16.666666666666668,3.3333333333333335,50.0,93
50.0,261,50.0,10.0,94,3.3333333333333335,16.666666666666668,50.0,94
50.0,264,50.0,10.0,95,3.3333333333333335,16.666666666666668,50.0,95
50.0,267,50.0,10.0,96,3.3333333333333335,16.666666666666668,50.0,96
50.0,270,50.0,10.0,97,3.3333333333333335,16.666666666666668,50.0,97
50.0,273,50.0,10.0,98,3.3333333333333335,16.666666666666668,50.0,98
-5.0,276,50.0,-5.0,99,-1.6666666666666667,-1.6666666666666667,50.0,99
-5.0,278,50.0,-5.0,100,-2.5,-2.5,50.0,100
10.0,281,50.0,50.0,101,16.666666666666668,3.3333333333333335,50.0,101
50.0,283,50.0,10.0,102,5.0,25.0,50.0,102
-10.0,285,50.0,-10.0,103,-5.0,-5.0,50.0,103
-5.0,287,50.0,-5.0,104,-2.5,-2.5,50.0,104
50.0,290,50.0,10.0,105,3.3333333333333335,16.666666666666668,50.0,105
50.0,293,50.0,10.0,106,3.3333333333333335,16.666666666666668,50.0,106
50.0,296,50.0,10.0,107,3.3333333333333335,16.666666666666668,50.0,107
10.0,299,50.0,50.0,108,16.666666666666668,3.3333333333333335,50.0,108
-5.0,301,50.0,-5.0,109,-2.5,-2.5,50.0,109
10.0,303,50.0,50.0,110,25.0,5.0,50.0,110
10.0,305,50.0,50.0,111,25.0,5.0,50.0,111
10.0,308,50.0,50.0,112,16.666666666666668,3.3333333333333335,50.0,112
50.0,310,50.0,10.0,113,5.0,25.0,50.0,113
50.0,313,50.0,10.0,114,3.3333333333333335,16.666666666666668,50.0,114
-5.0,315,50.0,-5.0,115,-2.5,-2.5,50.0,115
10.0,318,50.0,50.0,116,16.666666666666668,3.3333333333333335,50.0,116
10.0,321,50.0,50.0,117,16.666666666666668,3.3333333333333335,50.0,117
10.0,324,50.0,50.0,118,16.666666666666668,3.3333333333333335,50.0,118
10.0,327,50.0,50.0,119,16.666666666666668,3.3333333333333335,50.0,119
-5.0,330,50.0,-5.0,120,-1.6666666666666667,-1.6666666666666667,50.0,120
10.0,333,50.0,50.0,121,16.666666666666668,3.3333333333333335,50.0,121
-5.0,335,50.0,-5.0,122,-2.5,-2.5,50.0,122
50.0,338,50.0,10.0,123,3.3333333333333335,16.666666666666668,50.0,123
-5.0,341,50.0,-5.0,124,-1.6666666666666667,-1.6666666666666667,50.0,124
10.0,344,50.0,50.0,125,16.666666666666668,3.3333333333333335,50.0,125
10.0,347,50.0,50.0,126,16.666666666666668,3.3333333333333335,50.0,126
50.0,350,50.0,10.0,127,3.3333333333333335,16.666666666666668,50.0,127
10.0,352,50.0,50.0,128,25.0,5.0,50.0,128
10.0,355,50.0,50.0,129,16.666666666666668,3.3333333333333335,50.0,129
50.0,358,50.0,10.0,130,3.3333333333333335,16.666666666666668,50.0,130
10.0,361,50.0,50.0,131,16.666666666666668,3.3333333333333335,50.0,131
10.0,364,50.0,50.0,132,16.666666666666668,3.3333333333333335,50.0,132
10.0,367,50.0,50.0,133,16.666666666666668,3.3333333333333335,50.0,133
50.0,370,50.0,10.0,134,3.3333333333333335,16.666666666666668,50.0,134
-5.0,372,50.0,-5.0,135,-2.5,-2.5,50.0,135
-5.0,375,50.0,-5.0,136,-1.6666666666666667,-1.6666666666666667,50.0,136
50.0,378,50.0,10.0,137,3.3333333333333335,16.666666666666668,50.0,137
10.0,381,50.0,50.0,138,16.666666666666668,3.3333333333333335,50.0,138
10.0,384,50.0,50.0,139,16.666666666666668,3.3333333333333335,50.0,139
50.0,387,50.0,10.0,140,3.3333333333333335,16.666666666666668,50.0,140
50.0,390,50.0,10.0,141,3.3333333333333335,16.666666666666668,50.0,141
50.0,393,50.0,10.0,142,3.3333333333333335,16.666666666666668,50.0,142
10.0,396,50.0,50.0,143,16.666666666666668,3.3333333333333335,50.0,143
50.0,399,50.0,10.0,144,3.3333333333333335,16.666666666666668,50.0,144
50.0,402,50.0,10.0,145,3.3333333333333335,16.666666666666668,50.0,145
50.0,404,50.0,10.0,146,5.0,25.0,50.0,146
10.0,407,50.0,50.0,147,16.666666666666668,3.3333333333333335,50.0,147
10.0,410,50.0,50.0,148,16.666666666666668,3.3333333333333335,50.0,148
10.0,413,50.0,50.0,149,16.666666666666668,3.3333333333333335,50.0,149
10.0,416,50.0,50.0,150,16.666666666666668,3.3333333333333335,50.0,150
10.0,419,50.0,50.0,151,16.666666666666668,3.3333333333333335,50.0,151
10.0,422,50.0,50.0,152,16.666666666666668,3.3333333333333335,50.0,152
-5.0,425,50.0,-5.0,153,-1.6666666666666667,-1.6666666666666667,50.0,153
10.0,428,50.0,50.0,154,16.666666666666668,3.3333333333333335,50.0,154
10.0,431,50.0,50.0,155,16.666666666666668,3.3333333333333335,50.0,155
10.0,434,50.0,50.0,156,16.666666666666668,3.3333333333333335,50.0,156
10.0,437,50.0,50.0,157,16.666666666666668,3.3333333333333335,50.0,157
50.0,439,50.0,10.0,158,5.0,25.0,50.0,158
-10.0,441,50.0,-10.0,159,-5.0,-5.0,50.0,159
50.0,444,50.0,10.0,160,3.3333333333333335,16.666666666666668,50.0,160
50.0,447,50.0,10.0,161,3.3333333333333335,16.666666666666668,50.0,161
10.0,450,50.0,50.0,162,16.666666666666668,3.3333333333333335,50.0,162
10.0,453,50.0,50.0,163,16.666666666666668,3.3333333333333335,50.0,163
-10.0,455,50.0,-10.0,164,-5.0,-5.0,50.0,164
50.0,458,50.0,10.0,165,3.3333333333333335,16.666666666666668,50.0,165
10.0,461,50.0,50.0,166,16.666666666666668,3.3333333333333335,50.0,166
10.0,464,50.0,50.0,167,16.666666666666668,3.3333333333333335,50.0,167
10.0,467,50.0,50.0,168,16.666666666666668,3.3333333333333335,50.0,168
10.0,470,50.0,50.0,169,16.666666666666668,3.3333333333333335,50.0,169
10.0,473,50.0,50.0,170,16.666666666666668,3.3333333333333335,50.0,170
50.0,476,50.0,10.0,171,3.3333333333333335,16.666666666666668,50.0,171
10.0,479,50.0,50.0,172,16.666666666666668,3.3333333333333335,50.0,172
-5.0,482,50.0,-5.0,173,-1.6666666666666667,-1.6666666666666667,50.0,173
50.0,484,50.0,10.0,174,5.0,25.0,50.0,174
50.0,487,50.0,10.0,175,3.3333333333333335,16.666666666666668,50.0,175
-5.0,490,50.0,-5.0,176,-1.6666666666666667,-1.6666666666666667,50.0,176
50.0,493,50.0,10.0,177,3.3333333333333335,16.666666666666668,50.0,177
10.0,495,50.0,50.0,178,25.0,5.0,50.0,178
10.0,498,50.0,50.0,179,16.666666666666668,3.3333333333333335,50.0,179
-5.0,501,50.0,-5.0,180,-1.6666666666666667,-1.6666666666666667,50.0,180
-5.0,504,50.0,-5.0,181,-1.6666666666666667,-1.6666666666666667,50.0,181
-5.0,507,50.0,-5.0,182,-1.6666666666666667,-1.6666666666666667,50.0,182
-5.0,509,50.0,-5.0,183,-2.5,-2.5,50.0,183
-5.0,512,50.0,-5.0,184,-1.6666666666666667,-1.6666666666666667,50.0,184
-5.0,515,50.0,-5.0,185,-1.6666666666666667,-1.6666666666666667,50.0,185
50.0,518,50.0,10.0,186,3.3333333333333335,16.666666666666668,50.0,186
-5.0,521,50.0,-5.0,187,-1.6666666666666667,-1.6666666666666667,50.0,187
50.0,524,50.0,10.0,188,3.3333333333333335,16.666666666666668,50.0,188
-5.0,527,50.0,-5.0,189,-1.6666666666666667,-1.6666666666666667,50.0,189
50.0,529,50.0,10.0,190,5.0,25.0,50.0,190
-5.0,532,50.0,-5.0,191,-1.6666666666666667,-1.6666666666666667,50.0,191
50.0,535,50.0,10.0,192,3.3333333333333335,16.666666666666668,50.0,192
-5.0,538,50.0,-5.0,193,-1.6666666666666667,-1.6666666666666667,50.0,193
-10.0,540,50.0,-10.0,194,-5.0,-5.0,50.0,194
10.0,542,50.0,50.0,195,25.0,5.0,50.0,195
10.0,544,50.0,50.0,196,25.0,5.0,50.0,196
10.0,546,50.0,50.0,197,25.0,5.0,50.0,197
-5.0,549,50.0,-5.0,198,-1.6666666666666667,-1.6666666666666667,50.0,198
10.0,551,50.0,50.0,199,25.0,5.0,50.0,199
-5.0,554,50.0,-5.0,200,-1.6666666666666667,-1.6666666666666667,50.0,200
-5.0,557,50.0,-5.0,201,-1.6666666666666667,-1.6666666666666667,50.0,201
-10.0,559,50.0,-10.0,202,-5.0,-5.0,50.0,202
50.0,562,50.0,10.0,203,3.3333333333333335,16.666666666666668,50.0,203
10.0,565,50.0,50.0,204,16.666666666666668,3.3333333333333335,50.0,204
-5.0,568,50.0,-5.0,205,-1.6666666666666667,-1.6666666666666667,50.0,205
10.0,571,50.0,50.0,206,16.666666666666668,3.3333333333333335,50.0,206
-5.0,574,50.0,-5.0,207,-1.6666666666666667,-1.6666666666666667,50.0,207
50.0,577,50.0,10.0,208,3.3333333333333335,16.666666666666668,50.0,208
10.0,580,50.0,50.0,209,16.666666666666668,3.3333333333333335,50.0,209
50.0,583,50.0,10.0,210,3.3333333333333335,16.666666666666668,50.0,210
-5.0,585,50.0,-5.0,211,-2.5,-2.5,50.0,211
10.0,588,50.0,50.0,212,16.666666666666668,3.3333333333333335,50.0,212
50.0,591,50.0,10.0,213,3.3333333333333335,16.666666666666668,50.0,213
-5.0,593,50.0,-5.0,214,-2.5,-2.5,50.0,214
10.0,596,50.0,50.0,215,16.666666666666668,3.3333333333333335,50.0,215
10.0,599,50.0,50.0,216,16.666666666666668,3.3333333333333335,50.0,216
-5.0,602,50.0,-5.0,217,-1.6666666666666667,-1.6666666666666667,50.0,217
10.0,605,50.0,50.0,218,16.666666666666668,3.3333333333333335,50.0,218
50.0,608,50.0,10.0,219,3.3333333333333335,16.666666666666668,50.0,219
10.0,611,50.0,50.0,220,16.666666666666668,3.3333333333333335,50.0,220
10.0,614,50.0,50.0,221,16.666666666666668,3.3333333333333335,50.0,221
10.0,616,50.0,50.0,222,25.0,5.0,50.0,222
-5.0,619,50.0,-5.0,223,-1.6666666666666667,-1.6666666666666667,50.0,223
-5.0,621,50.0,-5.0,224,-2.5,-2.5,50.0,224
10.0,624,50.0,50.0,225,16.666666666666668,3.3333333333333335,50.0,225
10.0,627,50.0,50.0,226,16.666666666666668,3.3333333333333335,50.0,226
10.0,630,50.0,50.0,227,16.666666666666668,3.3333333333333335,50.0,227
10.0,633,50.0,50.0,228,16.666666666666668,3.3333333333333335,50.0,228
10.0,636,50.0,50.0,229,16.666666666666668,3.3333333333333335,50.0,229
-5.0,638,50.0,-5.0,230,-2.5,-2.5,50.0,230
10.0,641,50.0,50.0,231,16.666666666666668,3.3333333333333335,50.0,231
-10.0,643,50.0,-10.0,232,-5.0,-5.0,50.0,232
10.0,645,50.0,50.0,233,25.0,5.0,50.0,233
10.0,647,50.0,50.0,234,25.0,5.0,50.0,234
50.0,650,50.0,10.0,235,3.3333333333333335,16.666666666666668,50.0,235
10.0,652,50.0,50.0,236,25.0,5.0,50.0,236
-10.0,654,50.0,-10.0,237,-5.0,-5.0,50.0,237
10.0,656,50.0,50.0,238,25.0,5.0,50.0,238
10.0,658,50.0,50.0,239,25.0,5.0,50.0,239
10.0,660,50.0,50.0,240,25.0,5.0,50.0,240
10.0,662,50.0,50.0,241,25.0,5.0,50.0,241
10.0,664,50.0,50.0,242,25.0,5.0,50.0,242
10.0,667,50.0,50.0,243,16.666666666666668,3.3333333333333335,50.0,243
50.0,670,50.0,10.0,244,3.3333333333333335,16.666666666666668,50.0,244
10.0,672,50.0,50.0,245,25.0,5.0,50.0,245
10.0,674,50.0,50.0,246,25.0,5.0,50.0,246
10.0,677,50.0,50.0,247,16.666666666666668,3.3333333333333335,50.0,247
10.0,680,50.0,50.0,248,16.666666666666668,3.3333333333333335,50.0,248
10.0,682,50.0,50.0,249,25.0,5.0,50.0,249
50.0,684,50.0,10.0,250,5.0,25.0,50.0,250
10.0,686,50.0,50.0,251,25.0,5.0,50.0,251
10.0,689,50.0,50.0,252,16.666666666666668,3.3333333333333335,50.0,252
-5.0,691,50.0,-5.0,253,-2.5,-2.5,50.0,253
10.0,693,50.0,50.0,254,25.0,5.0,50.0,254
50.0,696,50.0,10.0,255,3.3333333333333335,16.666666666666668,50.0,255
10.0,699,50.0,50.0,256,16.666666666666668,3.3333333333333335,50.0,256
10.0,701,50.0,50.0,257,25.0,5.0,50.0,257
10.0,703,50.0,50.0,258,25.0,5.0,50.0,258
-5.0,705,50.0,-5.0,259,-2.5,-2.5,50.0,259
50.0,708,50.0,10.0,260,3.3333333333333335,16.666666666666668,50.0,260
-5.0,710,50.0,-5.0,261,-2.5,-2.5,50.0,261
-5.0,712,50.0,-5.0,262,-2.5,-2.5,50.0,262
-5.0,715,50.0,-5.0,263,-1.6666666666666667,-1.6666666666666667,50.0,263
-5.0,717,50.0,-5.0,264,-2.5,-2.5,50.0,264
-5.0,719,50.0,-5.0,265,-2.5,-2.5,50.0,265
-5.0,721,50.0,-5.0,266,-2.5,-2.5,50.0,266
-5.0,723,50.0,-5.0,267,-2.5,-2.5,50.0,267
-5.0,726,50.0,-5.0,268,-1.6666666666666667,-1.6666666666666667,50.0,268
-5.0,728,50.0,-5.0,269,-2.5,-2.5,50.0,269
10.0,730,50.0,50.0,270,25.0,5.0,50.0,270
10.0,733,50.0,50.0,271,16.666666666666668,3.3333333333333335,50.0,271
-5.0,735,50.0,-5.0,272,-2.5,-2.5,50.0,272
-5.0,737,50.0,-5.0,273,-2.5,-2.5,50.0,273
